<?xml version="1.0" encoding="UTF-8"?>
<svg xmlns="http://www.w3.org/2000/svg" xmlns:xlink="http://www.w3.org/1999/xlink" width="30px" height="30px" viewBox="0 0 30 30" version="1.1">
<g id="surface1">
<path style="fill-rule:nonzero;fill:rgb(0%,0%,0%);fill-opacity:1;stroke-width:4;stroke-linecap:round;stroke-linejoin:round;stroke:rgb(100%,100%,100%);stroke-opacity:1;stroke-miterlimit:4;" d="M 46 24 C 46 36.15 36.15 46 24 46 C 11.85 46 2 36.15 2 24 C 2 11.85 11.85 2 24 2 C 36.15 2 46 11.85 46 24 Z M 46 24 " transform="matrix(0.625,0,0,0.625,0,0)"/>
<path style="fill:none;stroke-width:6;stroke-linecap:round;stroke-linejoin:miter;stroke:rgb(100%,100%,100%);stroke-opacity:1;stroke-miterlimit:4;" d="M 16.21875 16.21875 L 31.78125 31.78125 " transform="matrix(0.625,0,0,0.625,0,0)"/>
<path style="fill:none;stroke-width:6;stroke-linecap:round;stroke-linejoin:miter;stroke:rgb(100%,100%,100%);stroke-opacity:1;stroke-miterlimit:4;" d="M 31.78125 16.21875 L 16.21875 31.78125 " transform="matrix(0.625,0,0,0.625,0,0)"/>
</g>
</svg>
